Chapter 7 Public Health | Machine Learning Application in Industry
…
7.1.2 Exploratory Data Analysis

Variabel prediktor (treatment, age, perform, cell) akan dianalisis menggunakan regresi survival. Dimana akan dilihat faktor-faktor apa saja yang mempengaruhi ketahanan hidup pasien sampai mengalami sebuah event: meninggal. Namun sebelumnya akan dianalisis menggunakan pendekatan non parametrik yaitu metode Kaplan Meier dan Log-Rank. Kaplan Meier adalah kurva yang menggambarkan hubungan antara waktu pengamatan (survival) dengan estimasi fungsi survival pada waktu ke-t. Kurva yang terbentuk kemudian dibandingkan menggunakan uji Log Rank. Tujuannya untuk mengetahui apakah terdapat perbedaan peluang survive antara level di setiap variabel kategorik.

lung_surv <- survfit(Surv(time = time, event = status) ~ 1, data = lung)

tibble(
  time = lung_surv$time,
  n_risk = lung_surv$n.risk,
  n_event = lung_surv$n.event,
  survival = lung_surv$surv
)

#> # A tibble: 101 x 4
#>     time n_risk n_event survival
#>    <dbl>  <dbl>   <dbl>    <dbl>
#>  1     1    137       2    0.985
#>  2     2    135       1    0.978
#>  3     3    134       1    0.971
#>  4     4    133       1    0.964
#>  5     7    132       3    0.942
#>  6     8    129       4    0.912
#>  7    10    125       2    0.898
#>  8    11    123       1    0.891
#>  9    12    122       2    0.876
#> 10    13    120       2    0.861
#> # ... with 91 more rows
…
